0.77100  bar  0;
3.09299  bar  1;
5.60075  bar  2;
8.01562  bar  3;
10.43052 bar  4;
12.75252 bar  5;
15.07452 bar  6;
17.39652 bar  7;
19.90422 bar  8;
22.22622 bar  9;
24.54822 bar 10;
26.87022 bar 11;
29.19222 bar 12;
31.60712 bar 13;
33.92912 bar 14;
36.25112 bar 15;
38.66592 bar 16;
41.08082 bar 17;
43.40282 bar 18;
45.72482 bar 19;
48.13972 bar 20;
50.55462 bar 21;
52.96942 bar 22;
55.29142 bar 23;
57.79922 bar 24;
60.21412 bar 25;
62.62892 bar 26;
65.04382 bar 27;
67.45872 bar 28;
69.96642 bar 29;
72.75282 bar 30;
75.72502 bar 31;
