0.28400  bar  0;
2.04872  bar  1;
4.09207  bar  2;
6.04255  bar  3;
7.99302  bar  4;
9.94346  bar  5;
11.98686 bar  6;
13.93736 bar  7;
15.88776 bar  8;
17.93116 bar  9;
19.88166 bar 10;
21.92496 bar 11;
23.96836 bar 12;
25.73306 bar 13;
27.68356 bar 14;
29.63406 bar 15;
31.67886 bar 16;
33.62786 bar 17;
35.48546 bar 18;
37.43596 bar 19;
39.38636 bar 20;
41.24396 bar 21;
43.28736 bar 22;
45.33066 bar 23;
47.18826 bar 24;
49.13876 bar 25;
51.08926 bar 26;
52.94686 bar 27;
54.89736 bar 28;
56.84776 bar 29;
58.89116 bar 30;
61.58466 bar 31;
