0.179000	7.518134	prima strofa
7.518134	15.325427	seconda strofa
15.325427	23.711038	inciso 1
23.711038	31.084593	inciso 2
31.084593	46.728095	recap prima strofa
46.728095	58.410119	recap seconda strofa
58.410119	61.359546	ultima battuta (+ 1/8)
