0.77900  bar  0;
3.19387  bar  1;
5.42299  bar  2;
7.55922  bar  3;
9.78834  bar  4;
12.01744 bar  5;
14.15374 bar  6;
16.38284 bar  7;
18.61194 bar  8;
20.84104 bar  9;
23.07014 bar 10;
25.20634 bar 11;
27.43554 bar 12;
29.66464 bar 13;
31.80084 bar 14;
34.02994 bar 15;
36.35194 bar 16;
38.67394 bar 17;
40.90304 bar 18;
43.13224 bar 19;
45.26844 bar 20;
47.49754 bar 21;
49.72814 bar 22;
51.95574 bar 23;
54.27774 bar 24;
56.50684 bar 25;
58.82884 bar 26;
61.05804 bar 27;
63.28714 bar 28;
65.51624 bar 29;
67.74534 bar 30;
70.06734 bar 31;
