0.44500  bar  0;
2.48835  bar  1;
4.71747  bar  2;
6.85371  bar  3;
9.08282  bar  4;
11.21906 bar  5;
13.44816 bar  6;
15.58436 bar  7;
17.81356 bar  8;
20.13556 bar  9;
22.36466 bar 10;
24.59376 bar 11;
26.82286 bar 12;
29.05196 bar 13;
31.28106 bar 14;
33.41736 bar 15;
35.64646 bar 16;
37.87556 bar 17;
40.01176 bar 18;
42.24096 bar 19;
44.47006 bar 20;
46.60626 bar 21;
48.83536 bar 22;
50.97166 bar 23;
53.20076 bar 24;
55.33696 bar 25;
57.47316 bar 26;
59.70236 bar 27;
61.93146 bar 28;
64.06766 bar 29;
66.29676 bar 30;
68.43306 bar 31;
