0.000000	8.300578	prima strofa
8.300578	16.756930	seconda strofa
16.756930	25.057508	primo inciso
25.057508	33.113296	secondo inciso
33.164075	49.829773	recap prima strofa
49.829773	62.543803	recap seconda strofa
62.541707	66.499831	ultime due battute
